[
  {
    "x": 0,
    "y": 0,
    "z": 0
  },
  {
    "x": 0,
    "y": 0,
    "z": 21
  },
  {
    "x": -0.09,
    "y": -0.03,
    "z": 43
  },
  {
    "x": -0.36,
    "y": -0.08,
    "z": 72
  },
  {
    "x": -0.67,
    "y": -0.18,
    "z": 102
  },
  {
    "x": -1.04,
    "y": -0.18,
    "z": 131.99
  },
  {
    "x": -1.2,
    "y": 0.16,
    "z": 165.99
  },
  {
    "x": -1.05,
    "y": 0.55,
    "z": 195.99
  },
  {
    "x": -0.91,
    "y": 0.86,
    "z": 223.99
  },
  {
    "x": -0.72,
    "y": 1.17,
    "z": 255.98
  },
  {
    "x": -0.45,
    "y": 1.43,
    "z": 286.98
  },
  {
    "x": -0.13,
    "y": 1.66,
    "z": 318.98
  },
  {
    "x": 0.14,
    "y": 1.93,
    "z": 350.98
  },
  {
    "x": 0.4,
    "y": 2.19,
    "z": 381.98
  },
  {
    "x": 0.71,
    "y": 2.44,
    "z": 413.97
  },
  {
    "x": 0.97,
    "y": 2.67,
    "z": 444.97
  },
  {
    "x": 1.27,
    "y": 2.87,
    "z": 476.97
  },
  {
    "x": 1.62,
    "y": 3.1,
    "z": 508.97
  },
  {
    "x": 1.94,
    "y": 3.37,
    "z": 540.96
  },
  {
    "x": 2.2,
    "y": 3.58,
    "z": 572.96
  },
  {
    "x": 2.43,
    "y": 3.72,
    "z": 603.96
  },
  {
    "x": 2.69,
    "y": 3.82,
    "z": 635.96
  },
  {
    "x": 2.94,
    "y": 3.85,
    "z": 667.96
  },
  {
    "x": 3.15,
    "y": 3.9,
    "z": 699.96
  },
  {
    "x": 3.37,
    "y": 3.93,
    "z": 730.96
  },
  {
    "x": 3.56,
    "y": 3.9,
    "z": 762.96
  },
  {
    "x": 3.72,
    "y": 3.81,
    "z": 794.96
  },
  {
    "x": 3.9,
    "y": 3.67,
    "z": 826.95
  },
  {
    "x": 4.04,
    "y": 3.48,
    "z": 857.95
  },
  {
    "x": 4.13,
    "y": 3.22,
    "z": 889.95
  },
  {
    "x": 4.18,
    "y": 2.95,
    "z": 921.95
  },
  {
    "x": 4.16,
    "y": 2.65,
    "z": 953.95
  },
  {
    "x": 4.09,
    "y": 2.33,
    "z": 984.95
  },
  {
    "x": 3.98,
    "y": 2.01,
    "z": 1016.95
  },
  {
    "x": 3.88,
    "y": 1.67,
    "z": 1048.94
  },
  {
    "x": 3.79,
    "y": 1.29,
    "z": 1080.94
  },
  {
    "x": 3.66,
    "y": 0.89,
    "z": 1112.94
  },
  {
    "x": 3.5,
    "y": 0.52,
    "z": 1143.94
  },
  {
    "x": 3.31,
    "y": 0.21,
    "z": 1175.93
  },
  {
    "x": 3.1,
    "y": -0.03,
    "z": 1208.93
  },
  {
    "x": 2.25,
    "y": -0.47,
    "z": 1318.93
  },
  {
    "x": 1.44,
    "y": -0.77,
    "z": 1412.92
  },
  {
    "x": 1.03,
    "y": -0.33,
    "z": 1506.92
  },
  {
    "x": 1.78,
    "y": 2.13,
    "z": 1601.88
  },
  {
    "x": 4.35,
    "y": 6.78,
    "z": 1695.73
  },
  {
    "x": 9.19,
    "y": 13.49,
    "z": 1789.36
  },
  {
    "x": 15.39,
    "y": 22.31,
    "z": 1882.74
  },
  {
    "x": 21.59,
    "y": 33.64,
    "z": 1975.84
  },
  {
    "x": 27.72,
    "y": 47.68,
    "z": 2069.6
  },
  {
    "x": 34.02,
    "y": 63.47,
    "z": 2162.05
  },
  {
    "x": 41.05,
    "y": 80.8,
    "z": 2254.16
  },
  {
    "x": 49.14,
    "y": 99.21,
    "z": 2347.01
  },
  {
    "x": 58.31,
    "y": 118.6,
    "z": 2438.53
  },
  {
    "x": 68.36,
    "y": 139.62,
    "z": 2530.63
  },
  {
    "x": 78.46,
    "y": 160.66,
    "z": 2621.68
  },
  {
    "x": 88.94,
    "y": 181.82,
    "z": 2712.67
  },
  {
    "x": 99.8,
    "y": 203.57,
    "z": 2803.47
  },
  {
    "x": 111.17,
    "y": 225.67,
    "z": 2895.16
  },
  {
    "x": 122.6,
    "y": 247.83,
    "z": 2985.79
  },
  {
    "x": 133.37,
    "y": 270.32,
    "z": 3076.42
  },
  {
    "x": 143.72,
    "y": 292.24,
    "z": 3167.24
  },
  {
    "x": 154.13,
    "y": 313.51,
    "z": 3258.21
  },
  {
    "x": 164.14,
    "y": 334.6,
    "z": 3349.27
  },
  {
    "x": 173.52,
    "y": 356.15,
    "z": 3441.31
  },
  {
    "x": 182.44,
    "y": 377.07,
    "z": 3531.49
  },
  {
    "x": 191.4,
    "y": 397.48,
    "z": 3622.81
  },
  {
    "x": 200.75,
    "y": 418.05,
    "z": 3715.08
  },
  {
    "x": 210.48,
    "y": 438.72,
    "z": 3806.26
  },
  {
    "x": 220.21,
    "y": 458.85,
    "z": 3897.56
  },
  {
    "x": 229.88,
    "y": 479.5,
    "z": 3989.79
  },
  {
    "x": 238.89,
    "y": 501.1,
    "z": 4080.83
  },
  {
    "x": 247.62,
    "y": 523.05,
    "z": 4171.81
  },
  {
    "x": 256.47,
    "y": 544.8,
    "z": 4262.83
  },
  {
    "x": 265.43,
    "y": 566.47,
    "z": 4354.89
  },
  {
    "x": 274.45,
    "y": 587.7,
    "z": 4446.02
  },
  {
    "x": 283.38,
    "y": 608.66,
    "z": 4537.21
  },
  {
    "x": 292.14,
    "y": 629.83,
    "z": 4628.38
  },
  {
    "x": 300.72,
    "y": 651.39,
    "z": 4719.47
  },
  {
    "x": 309.46,
    "y": 672.35,
    "z": 4810.68
  },
  {
    "x": 318.99,
    "y": 692.84,
    "z": 4902.96
  },
  {
    "x": 328.37,
    "y": 711.82,
    "z": 4994.54
  },
  {
    "x": 337.17,
    "y": 729.12,
    "z": 5086.51
  },
  {
    "x": 345.94,
    "y": 746.43,
    "z": 5178.49
  },
  {
    "x": 355.11,
    "y": 764.64,
    "z": 5271.27
  },
  {
    "x": 364.07,
    "y": 782.33,
    "z": 5363.16
  },
  {
    "x": 372.41,
    "y": 798.5,
    "z": 5455.38
  },
  {
    "x": 380.09,
    "y": 813.31,
    "z": 5548.9
  },
  {
    "x": 386.89,
    "y": 826.44,
    "z": 5641.73
  },
  {
    "x": 392.59,
    "y": 837.42,
    "z": 5734.91
  },
  {
    "x": 396.99,
    "y": 846,
    "z": 5828.41
  },
  {
    "x": 400.04,
    "y": 852.68,
    "z": 5923.12
  },
  {
    "x": 401.97,
    "y": 858.27,
    "z": 6016.93
  },
  {
    "x": 403.28,
    "y": 862.62,
    "z": 6110.82
  },
  {
    "x": 404.41,
    "y": 865.65,
    "z": 6204.77
  },
  {
    "x": 405.19,
    "y": 868.1,
    "z": 6298.73
  },
  {
    "x": 405.61,
    "y": 870.46,
    "z": 6393.7
  },
  {
    "x": 406.25,
    "y": 873.2,
    "z": 6487.66
  },
  {
    "x": 406.7,
    "y": 875.83,
    "z": 6581.62
  },
  {
    "x": 406.84,
    "y": 877.85,
    "z": 6675.6
  },
  {
    "x": 406.95,
    "y": 879.58,
    "z": 6769.58
  },
  {
    "x": 407.19,
    "y": 881.74,
    "z": 6863.56
  },
  {
    "x": 407.97,
    "y": 885.1,
    "z": 6957.49
  },
  {
    "x": 409.16,
    "y": 888.8,
    "z": 7051.41
  },
  {
    "x": 410.14,
    "y": 891.24,
    "z": 7146.37
  },
  {
    "x": 411.14,
    "y": 892.81,
    "z": 7240.35
  },
  {
    "x": 412.39,
    "y": 894.22,
    "z": 7334.34
  },
  {
    "x": 413.21,
    "y": 895.45,
    "z": 7428.32
  },
  {
    "x": 413.21,
    "y": 896.26,
    "z": 7523.32
  },
  {
    "x": 412.76,
    "y": 896.73,
    "z": 7617.32
  },
  {
    "x": 412.52,
    "y": 897.36,
    "z": 7711.32
  },
  {
    "x": 412.59,
    "y": 898.16,
    "z": 7806.31
  },
  {
    "x": 412.5,
    "y": 899.14,
    "z": 7900.31
  },
  {
    "x": 412.34,
    "y": 900.48,
    "z": 7994.3
  },
  {
    "x": 412.32,
    "y": 902.16,
    "z": 8089.28
  },
  {
    "x": 412.03,
    "y": 903.93,
    "z": 8183.26
  },
  {
    "x": 411.67,
    "y": 904.98,
    "z": 8241.25
  },
  {
    "x": 411.24,
    "y": 906.25,
    "z": 8322.24
  },
  {
    "x": 406.95,
    "y": 907.88,
    "z": 8416.1
  },
  {
    "x": 385.67,
    "y": 910.12,
    "z": 8507.31
  },
  {
    "x": 344.78,
    "y": 912.02,
    "z": 8592.94
  },
  {
    "x": 293.44,
    "y": 912.37,
    "z": 8671.62
  },
  {
    "x": 233.76,
    "y": 910.05,
    "z": 8744.14
  },
  {
    "x": 164.85,
    "y": 904.21,
    "z": 8809.14
  },
  {
    "x": 88.08,
    "y": 897.15,
    "z": 8862.79
  },
  {
    "x": 4.79,
    "y": 892.98,
    "z": 8906.02
  },
  {
    "x": -83.86,
    "y": 893.29,
    "z": 8936.91
  },
  {
    "x": -176.7,
    "y": 893.55,
    "z": 8950.47
  },
  {
    "x": -271.59,
    "y": 890.84,
    "z": 8953.97
  },
  {
    "x": -365.48,
    "y": 887.52,
    "z": 8957.05
  },
  {
    "x": -459.39,
    "y": 884.46,
    "z": 8959.98
  },
  {
    "x": -553.3,
    "y": 881.48,
    "z": 8962.53
  },
  {
    "x": -647.21,
    "y": 877.87,
    "z": 8964.6
  },
  {
    "x": -741.01,
    "y": 871.99,
    "z": 8965.82
  },
  {
    "x": -834.86,
    "y": 866.83,
    "z": 8965.16
  },
  {
    "x": -928.78,
    "y": 863.8,
    "z": 8962.7
  },
  {
    "x": -1022.73,
    "y": 861.55,
    "z": 8961.44
  },
  {
    "x": -1116.72,
    "y": 860.05,
    "z": 8961.04
  },
  {
    "x": -1211.71,
    "y": 859.53,
    "z": 8959.98
  },
  {
    "x": -1305.69,
    "y": 861.12,
    "z": 8960.15
  },
  {
    "x": -1399.66,
    "y": 862.73,
    "z": 8961.63
  },
  {
    "x": -1493.53,
    "y": 859.56,
    "z": 8959.53
  },
  {
    "x": -1588.17,
    "y": 852.27,
    "z": 8955.96
  },
  {
    "x": -1681.94,
    "y": 845.7,
    "z": 8955.3
  },
  {
    "x": -1775.76,
    "y": 840.48,
    "z": 8957.35
  },
  {
    "x": -1869.53,
    "y": 835.47,
    "z": 8961.55
  },
  {
    "x": -1963.23,
    "y": 828.31,
    "z": 8961.87
  },
  {
    "x": -2083.94,
    "y": 820.63,
    "z": 8961.87
  },
  {
    "x": -2177.87,
    "y": 819.04,
    "z": 8964.8
  },
  {
    "x": -2271.85,
    "y": 818.14,
    "z": 8966.91
  },
  {
    "x": -2365.77,
    "y": 815.28,
    "z": 8965.29
  },
  {
    "x": -2460.67,
    "y": 812.1,
    "z": 8963.04
  },
  {
    "x": -2554.64,
    "y": 809.73,
    "z": 8963.22
  },
  {
    "x": -2648.57,
    "y": 807.49,
    "z": 8965.81
  },
  {
    "x": -2742.5,
    "y": 805.8,
    "z": 8965.67
  },
  {
    "x": -2836.4,
    "y": 804.79,
    "z": 8967.1
  },
  {
    "x": -2930.29,
    "y": 804.26,
    "z": 8967.72
  },
  {
    "x": -3024.16,
    "y": 806.56,
    "z": 8964.6
  },
  {
    "x": -3118.05,
    "y": 810.8,
    "z": 8963.28
  },
  {
    "x": -3213,
    "y": 811.18,
    "z": 8960.94
  },
  {
    "x": -3306.87,
    "y": 806.5,
    "z": 8961.4
  },
  {
    "x": -3400.44,
    "y": 797.75,
    "z": 8963.15
  },
  {
    "x": -3493.71,
    "y": 786.96,
    "z": 8967.41
  },
  {
    "x": -3588.23,
    "y": 778.79,
    "z": 8971.68
  },
  {
    "x": -3682.12,
    "y": 774.65,
    "z": 8970.76
  },
  {
    "x": -3776.07,
    "y": 773.68,
    "z": 8967.89
  },
  {
    "x": -3870.89,
    "y": 776.52,
    "z": 8971.3
  },
  {
    "x": -3964.71,
    "y": 780.09,
    "z": 8973.73
  },
  {
    "x": -4058.47,
    "y": 782.6,
    "z": 8967.58
  },
  {
    "x": -4147.16,
    "y": 784.3,
    "z": 8960.43
  },
  {
    "x": -4237.98,
    "y": 785.51,
    "z": 8954.77
  },
  {
    "x": -4326.95,
    "y": 785.42,
    "z": 8954.21
  },
  {
    "x": -4416.9,
    "y": 783.29,
    "z": 8955.89
  },
  {
    "x": -4507.87,
    "y": 781.31,
    "z": 8956.78
  },
  {
    "x": -4598.84,
    "y": 779.31,
    "z": 8956.41
  },
  {
    "x": -4689.8,
    "y": 777.24,
    "z": 8954.65
  },
  {
    "x": -4783.79,
    "y": 776.56,
    "z": 8953.75
  },
  {
    "x": -4878.78,
    "y": 777.05,
    "z": 8955.02
  },
  {
    "x": -4972.75,
    "y": 775.93,
    "z": 8956.02
  },
  {
    "x": -5066.6,
    "y": 771.79,
    "z": 8953.07
  },
  {
    "x": -5160.5,
    "y": 768.15,
    "z": 8951.52
  },
  {
    "x": -5254.43,
    "y": 764.83,
    "z": 8951.78
  },
  {
    "x": -5348.29,
    "y": 760.38,
    "z": 8949.27
  },
  {
    "x": -5442.18,
    "y": 757.23,
    "z": 8946.25
  },
  {
    "x": -5536.16,
    "y": 756.12,
    "z": 8946.53
  },
  {
    "x": -5630.15,
    "y": 755.71,
    "z": 8947.32
  },
  {
    "x": -5724.11,
    "y": 754.89,
    "z": 8944.73
  },
  {
    "x": -5818.08,
    "y": 754.22,
    "z": 8942.79
  },
  {
    "x": -5912.08,
    "y": 753.78,
    "z": 8943.11
  },
  {
    "x": -6006,
    "y": 751.13,
    "z": 8945.38
  },
  {
    "x": -6099.81,
    "y": 745.74,
    "z": 8947.99
  },
  {
    "x": -6193.58,
    "y": 739.29,
    "z": 8949.17
  },
  {
    "x": -6287.25,
    "y": 731.62,
    "z": 8948.07
  },
  {
    "x": -6382.02,
    "y": 725.57,
    "z": 8948.5
  },
  {
    "x": -6475.86,
    "y": 722.88,
    "z": 8953.18
  },
  {
    "x": -6569.74,
    "y": 720.22,
    "z": 8956.94
  },
  {
    "x": -6663.65,
    "y": 716.18,
    "z": 8957.68
  },
  {
    "x": -6758.61,
    "y": 714.43,
    "z": 8957.2
  },
  {
    "x": -6852.6,
    "y": 715.59,
    "z": 8956.67
  },
  {
    "x": -6946.58,
    "y": 717.51,
    "z": 8956.86
  },
  {
    "x": -7040.56,
    "y": 718.2,
    "z": 8956.62
  },
  {
    "x": -7134.51,
    "y": 716.61,
    "z": 8953.99
  },
  {
    "x": -7229.47,
    "y": 716.44,
    "z": 8951.52
  },
  {
    "x": -7323.45,
    "y": 718.29,
    "z": 8950.32
  },
  {
    "x": -7417.43,
    "y": 719.64,
    "z": 8950.12
  },
  {
    "x": -7511.43,
    "y": 719.99,
    "z": 8950.83
  },
  {
    "x": -7605.41,
    "y": 718.9,
    "z": 8951.84
  },
  {
    "x": -7699.34,
    "y": 715.59,
    "z": 8951
  },
  {
    "x": -7793.21,
    "y": 711.17,
    "z": 8948.56
  },
  {
    "x": -7888.07,
    "y": 706.37,
    "z": 8947.09
  },
  {
    "x": -7981.93,
    "y": 701.35,
    "z": 8945.76
  },
  {
    "x": -8075.82,
    "y": 697.71,
    "z": 8943.18
  },
  {
    "x": -8170.78,
    "y": 696.64,
    "z": 8943.54
  },
  {
    "x": -8264.73,
    "y": 695.56,
    "z": 8942.73
  },
  {
    "x": -8358.66,
    "y": 694.31,
    "z": 8939.85
  },
  {
    "x": -8452.65,
    "y": 692.84,
    "z": 8939.53
  },
  {
    "x": -8547.59,
    "y": 692.3,
    "z": 8942.16
  },
  {
    "x": -8641.54,
    "y": 693.36,
    "z": 8944.09
  },
  {
    "x": -8735.52,
    "y": 694.78,
    "z": 8943.03
  },
  {
    "x": -8829.49,
    "y": 696.83,
    "z": 8942.64
  },
  {
    "x": -8922.46,
    "y": 695.61,
    "z": 8942.84
  },
  {
    "x": -9016.31,
    "y": 691,
    "z": 8945.61
  },
  {
    "x": -9110.1,
    "y": 686.15,
    "z": 8949.43
  },
  {
    "x": -9203.94,
    "y": 681.14,
    "z": 8951.81
  },
  {
    "x": -9297.81,
    "y": 676.35,
    "z": 8952.82
  },
  {
    "x": -9392.72,
    "y": 672.24,
    "z": 8952.34
  },
  {
    "x": -9486.66,
    "y": 669.03,
    "z": 8951.26
  },
  {
    "x": -9580.59,
    "y": 665.7,
    "z": 8950.33
  },
  {
    "x": -9675.45,
    "y": 660.69,
    "z": 8950.4
  },
  {
    "x": -9769.25,
    "y": 654.64,
    "z": 8951.35
  },
  {
    "x": -9863.13,
    "y": 649.89,
    "z": 8950.93
  },
  {
    "x": -9957.06,
    "y": 646.5,
    "z": 8949.93
  },
  {
    "x": -10052.01,
    "y": 643.76,
    "z": 8948.76
  },
  {
    "x": -10145.94,
    "y": 641.55,
    "z": 8945.82
  },
  {
    "x": -10239.79,
    "y": 640.13,
    "z": 8940.79
  },
  {
    "x": -10333.53,
    "y": 639.99,
    "z": 8933.77
  },
  {
    "x": -10430.24,
    "y": 639.19,
    "z": 8926.35
  },
  {
    "x": -10524.83,
    "y": 636.5,
    "z": 8918.06
  },
  {
    "x": -10619.45,
    "y": 632.62,
    "z": 8910.7
  },
  {
    "x": -10714.22,
    "y": 628.93,
    "z": 8905.32
  },
  {
    "x": -10808.95,
    "y": 624.79,
    "z": 8899.45
  },
  {
    "x": -10903.58,
    "y": 618.38,
    "z": 8894.12
  },
  {
    "x": -10999.09,
    "y": 610.83,
    "z": 8888.08
  },
  {
    "x": -11093.72,
    "y": 605.08,
    "z": 8882.1
  },
  {
    "x": -11189.49,
    "y": 601.53,
    "z": 8876.4
  },
  {
    "x": -11283.99,
    "y": 597.79,
    "z": 8867.61
  },
  {
    "x": -11377.55,
    "y": 594.66,
    "z": 8859.35
  },
  {
    "x": -11472.47,
    "y": 595.37,
    "z": 8855.89
  },
  {
    "x": -11566.4,
    "y": 598.21,
    "z": 8853.69
  },
  {
    "x": -11661.28,
    "y": 600.52,
    "z": 8849.56
  },
  {
    "x": -11756.14,
    "y": 602.98,
    "z": 8845.1
  },
  {
    "x": -11850.99,
    "y": 605.82,
    "z": 8840.6
  },
  {
    "x": -11945.74,
    "y": 609.05,
    "z": 8834.42
  },
  {
    "x": -12040.26,
    "y": 611.77,
    "z": 8825.47
  },
  {
    "x": -12133.61,
    "y": 614.59,
    "z": 8814.75
  },
  {
    "x": -12228.04,
    "y": 617.68,
    "z": 8804.89
  },
  {
    "x": -12320.52,
    "y": 620.55,
    "z": 8795.53
  },
  {
    "x": -12415.63,
    "y": 625.02,
    "z": 8783.34
  },
  {
    "x": -12478.74,
    "y": 628.64,
    "z": 8773.33
  }
]